<svg xmlns="http://www.w3.org/2000/svg" width="29.136" height="21.19" viewBox="0 0 29.136 21.19">
  <path id="back" d="M28.811,13.27H5.521l7.01-7.01a1.324,1.324,0,1,0-1.873-1.873l-9.27,9.271a1.324,1.324,0,0,0,0,1.873l9.27,9.27a1.324,1.324,0,1,0,1.873-1.873l-7.01-7.01h23.29a1.324,1.324,0,0,0,0-2.649Z" transform="translate(-1 -4)"/>
</svg>
