<svg xmlns="http://www.w3.org/2000/svg" width="26" height="26" viewBox="0 0 26 26">
  <g id="Group_82190" data-name="Group 82190" transform="translate(-30 -500)">
    <rect id="Rectangle_23355" data-name="Rectangle 23355" width="26" height="26" transform="translate(30 500)" fill="#fff" opacity="0"/>
    <g id="contact-us" transform="translate(26.238 496.442)">
      <path id="path2" d="M10.9,17.514a3.024,3.024,0,0,0-1.761.351,3.469,3.469,0,0,0-.474.29c-1.3.952-1.841,2.775-1.825,4.8a13.332,13.332,0,0,0,1.443,5.813,13.329,13.329,0,0,0,3.987,4.471c1.66,1.154,3.47,1.735,4.988,1.2a3.585,3.585,0,0,0,.513-.229,3.014,3.014,0,0,0,1.28-1.257,1.042,1.042,0,0,0-.2-1.293L15.9,28.945a.61.61,0,0,0-.7-.089l-.985.513a1.924,1.924,0,0,1-2.466-.872L10.46,26.059a1.926,1.926,0,0,1,.67-2.529l.976-.524a.618.618,0,0,0,.325-.634L11.854,18.4a.991.991,0,0,0-.953-.89Z" transform="translate(0 -8.084)" fill="#1e2328"/>
      <path id="path4" d="M37.9,11.522h1.311c.5-.012.926.279.861.774l-.427,3.253c-.074.563.772.711,1.054,0,.172-.434,1.008-.249.825.43a1.963,1.963,0,0,1-1.536,1.179h-.523a1.408,1.408,0,0,1-1.334-1.609l.366-2.615L37.7,12.7A.6.6,0,0,1,37.9,11.522Zm1.46-2.852a1.02,1.02,0,1,1-1.033,1.02A1.027,1.027,0,0,1,39.358,8.67Zm-.07-2.106a6.247,6.247,0,0,0-5.765,3.991,6.28,6.28,0,0,0,.181,5.191l-.946,1.38c-.324.471-.1.963.464.89L35.3,17.75a6.5,6.5,0,0,0,1.744,1.04,6.262,6.262,0,0,0,8.237-3.517,6.263,6.263,0,0,0-3.518-8.238,6.48,6.48,0,0,0-2.472-.471Z" transform="translate(-19.068)" fill="#1e2328"/>
    </g>
  </g>
</svg>
