<svg xmlns="http://www.w3.org/2000/svg" width="36.073" height="44.089" viewBox="0 0 36.073 44.089">
  <g id="Group_55664" data-name="Group 55664" transform="translate(-162.964 -319.955)">
    <g id="Layer_2" data-name="Layer 2" transform="translate(162.964 319.955)">
      <path id="Path_85648" data-name="Path 85648" d="M32.494,5.108A18.03,18.03,0,1,0,10.059,33.333a30.562,30.562,0,0,1,7.858,8.451l1.4,2.333a2,2,0,0,0,3.435,0L24.1,41.876a25.491,25.491,0,0,1,7.17-8.016A18.016,18.016,0,0,0,32.5,5.1ZM21.035,27.054a8.016,8.016,0,1,1,8.016-8.016A8.016,8.016,0,0,1,21.035,27.054Z" transform="translate(-3.001 -0.999)" fill="#1e2328"/>
    </g>
    <circle id="Ellipse_39" data-name="Ellipse 39" cx="8" cy="8" r="8" transform="translate(173 330)" fill="#fed053"/>
  </g>
</svg>
