<svg xmlns="http://www.w3.org/2000/svg" width="245" height="74" viewBox="0 0 245 74">
  <g id="Group_82131" data-name="Group 82131" transform="translate(1058.069 -1382.789)">
    <text id="Transporter" transform="translate(-1058.069 1427.789)" fill="#1e2328" font-size="42" font-family="Segoe UI" font-weight="700" letter-spacing="0.03em"><tspan x="0" y="0">Transp</tspan><tspan y="0" fill="#fed053">o</tspan><tspan y="0">rter</tspan></text>
    <text id="Safe_n_Easy" data-name="Safe &apos;n Easy" transform="translate(-922.069 1451.789)" fill="#1e2328" font-size="21" font-family="Sarabun" letter-spacing="0.01em"><tspan x="0" y="0">Safe &apos;n Easy</tspan></text>
    <g id="Group_82130" data-name="Group 82130" transform="translate(-918.623 1406.179)">
      <path id="Path_87499" data-name="Path 87499" d="M6.768-24.95a10.823,10.823,0,0,0-3.994,4,10.861,10.861,0,0,0-1.479,5.535A10.785,10.785,0,0,0,2.774-9.9,10.823,10.823,0,0,0,6.768-5.913a10.364,10.364,0,0,0,5.4,1.475c.04,0,2.68.006,2.979,0,1.693-.014,1.043-.519,2.7-1.475a10.823,10.823,0,0,0,4-4,10.767,10.767,0,0,0,1.456-5.511,10.843,10.843,0,0,0-1.456-5.535,10.823,10.823,0,0,0-4-4c-1.522-.883-.643-1.363-2.674-1.456H12.3A10.843,10.843,0,0,0,6.768-24.95ZM12.341-21a5.176,5.176,0,0,1,3.891,1.582,5.529,5.529,0,0,1,1.523,4,5.479,5.479,0,0,1-1.519,3.975,5.193,5.193,0,0,1-3.891,1.6,5.286,5.286,0,0,1-3.934-1.6,5.4,5.4,0,0,1-1.58-3.971,5.4,5.4,0,0,1,1.582-3.975,5.286,5.286,0,0,1,3.932-1.6Z" transform="translate(-0.885 26.816)" fill="#1e2328"/>
      <path id="Path_87500" data-name="Path 87500" d="M15.082-26.906h.4v.024a1.826,1.826,0,0,1,1.581.73,2.727,2.727,0,0,0,.889.756,11.277,11.277,0,0,1,4.146,4.15,11.283,11.283,0,0,1,1.512,5.737A11.244,11.244,0,0,1,22.1-9.79a11.277,11.277,0,0,1-4.144,4.144,4.18,4.18,0,0,0-1.083.857,1.979,1.979,0,0,1-1.811.675H12.076a10.746,10.746,0,0,1-5.6-1.533A11.277,11.277,0,0,1,2.328-9.79a11.252,11.252,0,0,1-1.533-5.72,11.291,11.291,0,0,1,1.533-5.737,11.277,11.277,0,0,1,4.144-4.144A11.283,11.283,0,0,1,12.209-26.9h2.868Zm-.679.82h-2.19a10.475,10.475,0,0,0-5.327,1.4,10.467,10.467,0,0,0-3.849,3.849,10.482,10.482,0,0,0-1.422,5.327A10.443,10.443,0,0,0,3.036-10.2,10.467,10.467,0,0,0,6.883-6.354a9.958,9.958,0,0,0,5.19,1.422h2.973c.841,0,.938-.11,1.226-.415a4.961,4.961,0,0,1,1.269-1.007A10.467,10.467,0,0,0,21.388-10.2a10.3,10.3,0,0,0,1.4-5.309,10.475,10.475,0,0,0-1.4-5.327,10.467,10.467,0,0,0-3.846-3.852,3.524,3.524,0,0,1-1.118-.953c-.22-.275-.32-.4-1.36-.448ZM12.254-21.5a5.578,5.578,0,0,1,4.187,1.707,5.955,5.955,0,0,1,1.633,4.28,5.852,5.852,0,0,1-1.633,4.262,5.584,5.584,0,0,1-4.187,1.721,5.7,5.7,0,0,1-4.226-1.721,5.806,5.806,0,0,1-1.7-4.262,5.809,5.809,0,0,1,1.7-4.262,5.7,5.7,0,0,1,4.222-1.721Zm0,11.153a4.793,4.793,0,0,0,3.6-1.475,5.069,5.069,0,0,0,1.406-3.69,5.1,5.1,0,0,0-1.4-3.712,4.787,4.787,0,0,0-3.6-1.451A4.907,4.907,0,0,0,8.614-19.2,5.019,5.019,0,0,0,7.15-15.509a5.017,5.017,0,0,0,1.461,3.688,4.91,4.91,0,0,0,3.643,1.475Z" transform="translate(-0.795 26.906)" fill="#1e2328"/>
      <path id="Path_87501" data-name="Path 87501" d="M6.768-24.95a10.823,10.823,0,0,0-3.994,4,10.861,10.861,0,0,0-1.479,5.535A10.785,10.785,0,0,0,2.774-9.9,10.823,10.823,0,0,0,6.768-5.913,10.861,10.861,0,0,0,12.3-4.437a10.861,10.861,0,0,0,5.534-1.475,10.823,10.823,0,0,0,4-4,10.767,10.767,0,0,0,1.457-5.511,10.843,10.843,0,0,0-1.456-5.535,10.823,10.823,0,0,0-4-4A10.843,10.843,0,0,0,12.3-26.406,10.843,10.843,0,0,0,6.768-24.95ZM12.341-21a5.176,5.176,0,0,1,3.891,1.582,5.529,5.529,0,0,1,1.523,4,5.479,5.479,0,0,1-1.519,3.975,5.193,5.193,0,0,1-3.891,1.6,5.286,5.286,0,0,1-3.934-1.6,5.4,5.4,0,0,1-1.58-3.971,5.4,5.4,0,0,1,1.582-3.975,5.286,5.286,0,0,1,3.932-1.6Z" transform="translate(1.574 26.816)" fill="#fed053"/>
      <path id="Path_87502" data-name="Path 87502" d="M12.213-26.906a11.283,11.283,0,0,1,5.737,1.512A11.277,11.277,0,0,1,22.1-21.246a11.283,11.283,0,0,1,1.512,5.737A11.244,11.244,0,0,1,22.1-9.79a11.277,11.277,0,0,1-4.144,4.144,11.291,11.291,0,0,1-5.737,1.533A11.291,11.291,0,0,1,6.479-5.646,11.277,11.277,0,0,1,2.328-9.79,11.252,11.252,0,0,1,.795-15.51a11.291,11.291,0,0,1,1.533-5.737,11.277,11.277,0,0,1,4.144-4.144A11.283,11.283,0,0,1,12.213-26.906Zm0,21.974A10.482,10.482,0,0,0,17.54-6.354,10.467,10.467,0,0,0,21.386-10.2a10.3,10.3,0,0,0,1.4-5.31,10.475,10.475,0,0,0-1.4-5.327,10.467,10.467,0,0,0-3.846-3.852,10.475,10.475,0,0,0-5.327-1.4,10.475,10.475,0,0,0-5.327,1.4,10.467,10.467,0,0,0-3.852,3.852A10.482,10.482,0,0,0,1.615-15.51,10.443,10.443,0,0,0,3.036-10.2,10.467,10.467,0,0,0,6.883-6.354a10.482,10.482,0,0,0,5.329,1.422Zm.041-16.56a5.578,5.578,0,0,1,4.187,1.707,5.955,5.955,0,0,1,1.633,4.276,5.852,5.852,0,0,1-1.633,4.262,5.584,5.584,0,0,1-4.187,1.721,5.7,5.7,0,0,1-4.226-1.721,5.806,5.806,0,0,1-1.7-4.262,5.809,5.809,0,0,1,1.7-4.262,5.7,5.7,0,0,1,4.222-1.721Zm0,11.153a4.793,4.793,0,0,0,3.6-1.475,5.069,5.069,0,0,0,1.406-3.7,5.1,5.1,0,0,0-1.4-3.712,4.787,4.787,0,0,0-3.6-1.451A4.907,4.907,0,0,0,8.614-19.2,5.019,5.019,0,0,0,7.15-15.51a5.017,5.017,0,0,0,1.461,3.688,4.91,4.91,0,0,0,3.643,1.475Z" transform="translate(1.664 26.906)" fill="#1e2328"/>
    </g>
  </g>
</svg>
