<svg xmlns="http://www.w3.org/2000/svg" width="26" height="26" viewBox="0 0 26 26">
  <g id="Group_82148" data-name="Group 82148" transform="translate(-30 -378)">
    <rect id="Rectangle_23353" data-name="Rectangle 23353" width="26" height="26" transform="translate(30 378)" fill="#fff" opacity="0"/>
    <g id="Group_55295" data-name="Group 55295" transform="translate(33.187 380.833)">
      <rect id="Rectangle_23360" data-name="Rectangle 23360" width="20" height="20" transform="translate(-0.187 0.167)" fill="#1e2328" opacity="0"/>
      <path id="Path_87536" data-name="Path 87536" d="M13.233,17.72H2.547V17.7A2.7,2.7,0,0,1,0,15.019V13.481a.327.327,0,0,1,.312-.334H2.788L2.87,1.976A1.989,1.989,0,0,1,4.867,0H17.555a2.085,2.085,0,0,1,2.072,2.087v2.82a.327.327,0,0,1-.309.335H16.092v9.776a2.688,2.688,0,0,1-2.669,2.7h-.011a.462.462,0,0,1-.081-.01.778.778,0,0,0-.1-.013v.023ZM6.49,12.669V14H12.2V12.669Zm0-2.436v1.338H12.2V10.233ZM9.2,2.29a.343.343,0,0,0-.134.034L6.691,3.489a.3.3,0,0,0-.159.27V5.923a2.358,2.358,0,0,0,.943,1.794L9.034,8.783a.294.294,0,0,0,.167.052.312.312,0,0,0,.171-.052l1.556-1.066a2.364,2.364,0,0,0,.939-1.794V3.762a.29.29,0,0,0-.159-.272L9.33,2.321A.318.318,0,0,0,9.2,2.29ZM8.832,6.684a.37.37,0,0,1-.264-.109l-.75-.757a.372.372,0,0,1,0-.527.464.464,0,0,1,.319-.145.283.283,0,0,1,.2.081l.486.494,1.218-1.232a.257.257,0,0,1,.193-.079.517.517,0,0,1,.338.157.371.371,0,0,1,.109.264.366.366,0,0,1-.109.263L9.1,6.576A.393.393,0,0,1,8.832,6.684Z" transform="translate(0 1.058)" fill="#1e2328"/>
    </g>
  </g>
</svg>
