<svg id="van" xmlns="http://www.w3.org/2000/svg" width="48.488" height="48.485" viewBox="0 0 48.488 48.485">
  <g id="Page-1_39_" transform="translate(0 0)">
    <g id="_x30_40---AC-Van" transform="translate(0 0)">
      <path id="Shape_267_" d="M209.2,102.672a12.93,12.93,0,1,1,12.93-12.93A12.93,12.93,0,0,1,209.2,102.672Zm0-24.244a11.314,11.314,0,1,0,11.314,11.314A11.314,11.314,0,0,0,209.2,78.428Z" transform="translate(-192.226 -69.539)"/>
      <path id="Shape_266_" d="M246.608,124.292a2.371,2.371,0,0,1-1.7-.727,3.845,3.845,0,0,0-1.082-.774,2.784,2.784,0,0,0-.312-.134,6.537,6.537,0,0,1,1.251,3.225,3.556,3.556,0,0,1-.979,2.9,5.116,5.116,0,0,1-1.778,1.165,4.773,4.773,0,0,1-1.841.384,4.378,4.378,0,0,1-1.957-.469,3.045,3.045,0,0,1-1.621-1.727,2.416,2.416,0,0,1,.555-2.653,3.89,3.89,0,0,0,.773-1.082,2.847,2.847,0,0,0,.134-.314,6.546,6.546,0,0,1-3.225,1.251,3.969,3.969,0,0,1-.412.022,3.546,3.546,0,0,1-2.491-1.009,5.112,5.112,0,0,1-1.166-1.778,4.425,4.425,0,0,1,.086-3.8,3.057,3.057,0,0,1,1.721-1.616,2.4,2.4,0,0,1,2.667.552,3.853,3.853,0,0,0,1.081.774,2.783,2.783,0,0,0,.323.136,6.534,6.534,0,0,1-1.258-3.227,3.541,3.541,0,0,1,.987-2.9,5.1,5.1,0,0,1,1.778-1.167,4.426,4.426,0,0,1,3.793.081,3.04,3.04,0,0,1,1.628,1.728,2.415,2.415,0,0,1-.555,2.657,3.9,3.9,0,0,0-.774,1.078,3.1,3.1,0,0,0-.134.318,6.531,6.531,0,0,1,3.227-1.25,3.547,3.547,0,0,1,2.89.982,5.111,5.111,0,0,1,1.165,1.778,4.418,4.418,0,0,1-.081,3.8,3.054,3.054,0,0,1-1.725,1.616,2.88,2.88,0,0,1-.969.181Zm-8.556-3.656a2.02,2.02,0,0,0,2.02,2.02h0a2.02,2.02,0,1,0-2.024-2.02Zm.066,6.966a1.467,1.467,0,0,0,.808.808,2.828,2.828,0,0,0,2.462.044,3.515,3.515,0,0,0,1.23-.79,1.934,1.934,0,0,0,.544-1.616,4.9,4.9,0,0,0-.97-2.469,3.6,3.6,0,0,1-2.112.7h-.009a3.463,3.463,0,0,1-.39-.038,3.748,3.748,0,0,1-.314.874,5.546,5.546,0,0,1-1.084,1.518.814.814,0,0,0-.167.976Zm-2.518-7.666a5.489,5.489,0,0,1-1.518-1.089.808.808,0,0,0-.975-.166,1.481,1.481,0,0,0-.808.808,2.828,2.828,0,0,0-.044,2.462,3.491,3.491,0,0,0,.789,1.228,1.95,1.95,0,0,0,1.622.546,4.964,4.964,0,0,0,2.47-.97,3.2,3.2,0,0,1-.657-2.505,3.7,3.7,0,0,1-.878-.315Zm6.429-6.266a1.47,1.47,0,0,0-.813-.808,2.836,2.836,0,0,0-2.462-.043,3.479,3.479,0,0,0-1.227.792,1.923,1.923,0,0,0-.547,1.616,4.895,4.895,0,0,0,.97,2.467,3.6,3.6,0,0,1,2.116-.694h.007a3.627,3.627,0,0,1,.389.04,3.817,3.817,0,0,1,.31-.874,5.549,5.549,0,0,1,1.089-1.518.816.816,0,0,0,.169-.976h0Zm5.863,5.649a3.508,3.508,0,0,0-.79-1.23,1.931,1.931,0,0,0-1.616-.544,4.957,4.957,0,0,0-2.47.97,3.6,3.6,0,0,1,.693,2.112,3.566,3.566,0,0,1-.04.4,3.669,3.669,0,0,1,.874.313,5.382,5.382,0,0,1,1.517,1.085.808.808,0,0,0,.978.168,1.48,1.48,0,0,0,.815-.808,2.834,2.834,0,0,0,.039-2.461Z" transform="translate(-223.101 -100.433)"/>
      <path id="Shape_265_" d="M46.063,43.651h-.873a5.65,5.65,0,0,1-11.185,0H14.482a5.65,5.65,0,0,1-11.185,0H2.424A2.424,2.424,0,0,1,0,41.226V7.285A3.232,3.232,0,0,1,3.232,4.053h9.7V1.628A1.616,1.616,0,0,1,14.546.012H28.285A1.616,1.616,0,0,1,29.9,1.628V4.053h.808a3.232,3.232,0,0,1,3.232,3.232v3.232h6.633a3.232,3.232,0,0,1,2.846,1.7l4.971,9.234a.807.807,0,0,1,.1.383v19.4A2.424,2.424,0,0,1,46.063,43.651ZM39.6,46.883a4.041,4.041,0,1,0-4.041-4.041A4.041,4.041,0,0,0,39.6,46.883Zm-30.709,0a4.041,4.041,0,1,0-4.041-4.041A4.041,4.041,0,0,0,8.89,46.883Zm19.4-45.255H14.546V4.053H28.285Zm4.041,5.657a1.616,1.616,0,0,0-1.616-1.616H3.233A1.616,1.616,0,0,0,1.616,7.285V34.761H23.436a.808.808,0,1,1,0,1.616H1.616v4.849a.808.808,0,0,0,.808.808H3.3a5.65,5.65,0,0,1,11.185,0H34.006a5.65,5.65,0,0,1,11.185,0h.873a.808.808,0,0,0,.808-.808V36.378H28.285a.808.808,0,1,1,0-1.616h4.041Zm8.249,4.849H33.941V34.761h12.93V33.145H44.447a1.616,1.616,0,0,1-1.616-1.616V29.913A1.616,1.616,0,0,1,44.447,28.3h2.424V22.639H37.982a1.616,1.616,0,0,1-1.616-1.616V16.174a1.616,1.616,0,0,1,1.616-1.616h4.863L42,12.984a1.616,1.616,0,0,0-1.423-.85Zm6.3,17.779H44.447v1.616h2.424Zm-.545-8.889-2.611-4.849H37.982v4.849Z" transform="translate(0 -0.012)"/>
      <path id="Shape_264_" d="M70.691,426.679a2.424,2.424,0,1,1-2.424,2.424A2.424,2.424,0,0,1,70.691,426.679Zm0,3.232a.808.808,0,1,0-.808-.808A.808.808,0,0,0,70.691,429.911Z" transform="translate(-31.093 -386.273)"/>
      <path id="Shape_263_" d="M394.957,426.679a2.424,2.424,0,1,1-2.424,2.424A2.424,2.424,0,0,1,394.957,426.679Zm0,3.232a.808.808,0,1,0-.808-.808A.808.808,0,0,0,394.957,429.911Z" transform="translate(-386.068 -386.273)"/>
      <path id="Shape_262_" d="M86.142,256.012h2.424a.808.808,0,1,1,0,1.616H86.142a.808.808,0,1,1,0-1.616Z" transform="translate(-48.968 -231.768)"/>
    </g>
  </g>
</svg>
